…
``` r
library(haven)
library(readxl)
```

Tabular Data
============

You might not see much difference between these two in this notebook, but one is a tibble and one is a data frame:

``` r
mpg
```

    ## # A tibble: 234 x 11
    ##    manufacturer model    displ  year   cyl trans   drv     cty   hwy fl   
    ##    <chr>        <chr>    <dbl> <int> <int> <chr>   <chr> <int> <int> <chr>
    ##  1 audi         a4         1.8  1999     4 auto(l… f        18    29 p    
    ##  2 audi         a4         1.8  1999     4 manual… f        21    29 p    
    ##  3 audi         a4         2    2008     4 manual… f        20    31 p    
    ##  4 audi         a4         2    2008     4 auto(a… f        21    30 p    
    ##  5 audi         a4         2.8  1999     6 auto(l… f        16    26 p    
    ##  6 audi         a4         2.8  1999     6 manual… f        18    26 p    
    ##  7 audi         a4         3.1  2008     6 auto(a… f        18    27 p    
    ##  8 audi         a4 quat…   1.8  1999     4 manual… 4        18    26 p    
    ##  9 audi         a4 quat…   1.8  1999     4 auto(l… 4        16    25 p    
    ## 10 audi         a4 quat…   2    2008     4 manual… 4        20    28 p    
    ## # ... with 224 more rows, and 1 more variable: class <chr>

``` r
quakes
```

    ## # A tibble: 1,000 x 5
    ##      lat  long depth   mag stations
    ##    <dbl> <dbl> <int> <dbl>    <int>
    ##  1 -20.4  182.   562   4.8       41
    ##  2 -20.6  181.   650   4.2       15
    ##  3 -26    184.    42   5.4       43
    ##  4 -18.0  182.   626   4.1       19
    ##  5 -20.4  182.   649   4         11
    ##  6 -19.7  184.   195   4         12
    ##  7 -11.7  166.    82   4.8       43
    ##  8 -28.1  182.   194   4.4       15
    ##  9 -28.7  182.   211   4.7       35
    ## 10 -17.5  180.   622   4.3       19
    ## # ... with 990 more rows
…
> "This dataset contains a subset of the fuel economy data that the EPA makes available on <http://fueleconomy.gov>. It contains only models which had a new release every year between 1999 and 2008 - this was used as a proxy for the popularity of the car."

Vector Data
===========

Your turn 5
-----------

Take another look at mpg. What kind of data is in each column?

``` r
mpg # and view in the notebook
```

    ## # A tibble: 234 x 11
    ##    manufacturer model    displ  year   cyl trans   drv     cty   hwy fl   
    ##    <chr>        <chr>    <dbl> <int> <int> <chr>   <chr> <int> <int> <chr>
    ##  1 audi         a4         1.8  1999     4 auto(l… f        18    29 p    
    ##  2 audi         a4         1.8  1999     4 manual… f        21    29 p    
    ##  3 audi         a4         2    2008     4 manual… f        20    31 p    
    ##  4 audi         a4         2    2008     4 auto(a… f        21    30 p    
    ##  5 audi         a4         2.8  1999     6 auto(l… f        16    26 p    
    ##  6 audi         a4         2.8  1999     6 manual… f        18    26 p    
    ##  7 audi         a4         3.1  2008     6 auto(a… f        18    27 p    
    ##  8 audi         a4 quat…   1.8  1999     4 manual… 4        18    26 p    
    ##  9 audi         a4 quat…   1.8  1999     4 auto(l… 4        16    25 p    
    ## 10 audi         a4 quat…   2    2008     4 manual… 4        20    28 p    
    ## # ... with 224 more rows, and 1 more variable: class <chr>
…
``` r
iris <- read_spss("data/iris.sav")
iris
```

    ## # A tibble: 150 x 5
    ##    Sepal.Length Sepal.Width Petal.Length Petal.Width Species  
    ##           <dbl>       <dbl>        <dbl>       <dbl> <dbl+lbl>
    ##  1          5.1         3.5          1.4         0.2 1        
    ##  2          4.9         3            1.4         0.2 1        
    ##  3          4.7         3.2          1.3         0.2 1        
    ##  4          4.6         3.1          1.5         0.2 1        
    ##  5          5           3.6          1.4         0.2 1        
    ##  6          5.4         3.9          1.7         0.4 1        
    ##  7          4.6         3.4          1.4         0.3 1        
    ##  8          5           3.4          1.5         0.2 1        
    ##  9          4.4         2.9          1.4         0.2 1        
    ## 10          4.9         3.1          1.5         0.1 1        
    ## # ... with 140 more rows
…
    ## Parsed with column specification:
    ## cols(
    ##   date = col_datetime(format = ""),
    ##   longitude = col_double(),
    ##   latitude = col_double(),
    ##   ozone = col_character()
    ## )

``` r
nimbus
```

    ## # A tibble: 18,963 x 4
    ##    date                longitude latitude ozone
    ##    <dttm>                  <dbl>    <dbl> <chr>
    ##  1 1985-10-01 00:00:00     -179.    -73.5 302  
    ##  2 1985-10-01 00:00:00     -178.    -73.5 302  
    ##  3 1985-10-01 00:00:00     -177.    -73.5 302  
    ##  4 1985-10-01 00:00:00     -176.    -73.5 302  
    ##  5 1985-10-01 00:00:00     -174.    -73.5 304  
    ##  6 1985-10-01 00:00:00     -173.    -73.5 304  
    ##  7 1985-10-01 00:00:00     -172.    -73.5 304  
    ##  8 1985-10-01 00:00:00     -171.    -73.5 304  
    ##  9 1985-10-01 00:00:00     -164.    -73.5 287  
    ## 10 1985-10-01 00:00:00     -163.    -73.5 287  
    ## # ... with 18,953 more rows
…
