…
gapminder
---------

``` r
gapminder
```

    ## # A tibble: 1,704 x 6
    ##        country continent  year lifeExp      pop gdpPercap
    ##         <fctr>    <fctr> <int>   <dbl>    <int>     <dbl>
    ##  1 Afghanistan      Asia  1952  28.801  8425333  779.4453
    ##  2 Afghanistan      Asia  1957  30.332  9240934  820.8530
    ##  3 Afghanistan      Asia  1962  31.997 10267083  853.1007
    ##  4 Afghanistan      Asia  1967  34.020 11537966  836.1971
    ##  5 Afghanistan      Asia  1972  36.088 13079460  739.9811
    ##  6 Afghanistan      Asia  1977  38.438 14880372  786.1134
    ##  7 Afghanistan      Asia  1982  39.854 12881816  978.0114
    ##  8 Afghanistan      Asia  1987  40.822 13867957  852.3959
    ##  9 Afghanistan      Asia  1992  41.674 16317921  649.3414
    ## 10 Afghanistan      Asia  1997  41.763 22227415  635.3414
    ## # ... with 1,694 more rows
…
All data for countries in Oceania

``` r
filter(gapminder, continent == "Oceania")
```

    ## # A tibble: 24 x 6
    ##      country continent  year lifeExp      pop gdpPercap
    ##       <fctr>    <fctr> <int>   <dbl>    <int>     <dbl>
    ##  1 Australia   Oceania  1952   69.12  8691212  10039.60
    ##  2 Australia   Oceania  1957   70.33  9712569  10949.65
    ##  3 Australia   Oceania  1962   70.93 10794968  12217.23
    ##  4 Australia   Oceania  1967   71.10 11872264  14526.12
    ##  5 Australia   Oceania  1972   71.93 13177000  16788.63
    ##  6 Australia   Oceania  1977   73.49 14074100  18334.20
    ##  7 Australia   Oceania  1982   74.74 15184200  19477.01
    ##  8 Australia   Oceania  1987   76.32 16257249  21888.89
    ##  9 Australia   Oceania  1992   77.56 17481977  23424.77
    ## 10 Australia   Oceania  1997   78.83 18565243  26997.94
    ## # ... with 14 more rows
…
Your Turn 3
-----------

Alter the code to:

-   Add an africa column, which contains TRUE is the country is on the Africa continent.
-   Add a rank\_pop column to rank each row in gapminder from largest pop to smallest pop.

``` r
mutate(gapminder, 
  africa = continent == "Africa",
  rank_pop = min_rank(desc(pop)))
```

    ## # A tibble: 1,704 x 8
    ##        country continent  year lifeExp      pop gdpPercap africa rank_pop
    ##         <fctr>    <fctr> <int>   <dbl>    <int>     <dbl>  <lgl>    <int>
    ##  1 Afghanistan      Asia  1952  28.801  8425333  779.4453  FALSE      762
    ##  2 Afghanistan      Asia  1957  30.332  9240934  820.8530  FALSE      706
    ##  3 Afghanistan      Asia  1962  31.997 10267083  853.1007  FALSE      638
    ##  4 Afghanistan      Asia  1967  34.020 11537966  836.1971  FALSE      576
    ##  5 Afghanistan      Asia  1972  36.088 13079460  739.9811  FALSE      536
    ##  6 Afghanistan      Asia  1977  38.438 14880372  786.1134  FALSE      497
    ##  7 Afghanistan      Asia  1982  39.854 12881816  978.0114  FALSE      544
    ##  8 Afghanistan      Asia  1987  40.822 13867957  852.3959  FALSE      524
    ##  9 Afghanistan      Asia  1992  41.674 16317921  649.3414  FALSE      476
    ## 10 Afghanistan      Asia  1997  41.763 22227415  635.3414  FALSE      388
    ## # ... with 1,694 more rows
…
