…
    ## See spec(...) for full column specifications.

Tidying data
============

Your turn
---------

Brainstorm with neighbor: What needs to happen to `housing_raw` to get it in a form to plot?

``` r
housing_raw
```

    ## # A tibble: 48 x 123
    ##                    Geography `New housing price indexes` `Sep-07` `Oct-07`
    ##                        <chr>                       <chr>    <dbl>    <dbl>
    ##  1                    Canada      Total (house and land)     86.5     86.6
    ##  2                    Canada                  House only     85.1     85.1
    ##  3                    Canada                   Land only     90.0     90.3
    ##  4           Atlantic Region      Total (house and land)     80.4     80.7
    ##  5           Atlantic Region                  House only     82.5     82.7
    ##  6           Atlantic Region                   Land only     73.5     73.8
    ##  7 Newfoundland and Labrador      Total (house and land)     67.3     67.9
    ##  8 Newfoundland and Labrador                  House only     70.6     71.1
    ##  9 Newfoundland and Labrador                   Land only     59.8     60.3
    ## 10      Prince Edward Island      Total (house and land)     97.6     97.6
    ## # ... with 38 more rows, and 119 more variables: `Nov-07` <dbl>,
    ## #   `Dec-07` <dbl>, `Jan-08` <dbl>, `Feb-08` <dbl>, `Mar-08` <dbl>,
    ## #   `Apr-08` <dbl>, `May-08` <dbl>, `Jun-08` <dbl>, `Jul-08` <dbl>,
    ## #   `Aug-08` <dbl>, `Sep-08` <dbl>, `Oct-08` <dbl>, `Nov-08` <dbl>,
    ## #   `Dec-08` <dbl>, `Jan-09` <dbl>, `Feb-09` <dbl>, `Mar-09` <dbl>,
    ## #   `Apr-09` <dbl>, `May-09` <dbl>, `Jun-09` <dbl>, `Jul-09` <dbl>,
    ## #   `Aug-09` <dbl>, `Sep-09` <dbl>, `Oct-09` <dbl>, `Nov-09` <dbl>,
    ## #   `Dec-09` <dbl>, `Jan-10` <dbl>, `Feb-10` <dbl>, `Mar-10` <dbl>,
    ## #   `Apr-10` <dbl>, `May-10` <dbl>, `Jun-10` <dbl>, `Jul-10` <dbl>,
…
Your turn
---------

Try to tidy `housing_raw` don't forget your cheatsheet.

``` r
housing_reshaped <- housing_raw %>% 
  gather(key = "time", value = "hpi", 
    -Geography, -`New housing price indexes`) %>%
  spread(`New housing price indexes`, hpi) 

housing_reshaped
```

    ## # A tibble: 1,936 x 5
    ##    Geography   time `House only` `Land only` `Total (house and land)`
    ##  *     <chr>  <chr>        <dbl>       <dbl>                    <dbl>
    ##  1   Alberta Apr-08        103.5       101.2                    102.6
    ##  2   Alberta Apr-09         90.1        95.1                     91.7
    ##  3   Alberta Apr-10         93.3        91.1                     92.6
    ##  4   Alberta Apr-11         92.5        92.9                     92.7
    ##  5   Alberta Apr-12         93.8        93.8                     93.7
    ##  6   Alberta Apr-13         96.9        94.7                     96.1
    ##  7   Alberta Apr-14        100.7        96.7                     99.3
    ##  8   Alberta Apr-15        101.6        98.7                    100.6
    ##  9   Alberta Apr-16        101.2        98.9                    100.4
    ## 10   Alberta Apr-17        100.0        99.7                     99.9
    ## # ... with 1,926 more rows
…
